\relax 
\newlabel{thanks_abstract}{{}{3}}
\citation{4}
\citation{5}
\citation{10}
\citation{11}
\citation{12}
\citation{20}
\@writefile{toc}{\contentsline {chapter}{\numberline {1}Eισαγωγή}{17}}
\@writefile{lof}{\addvspace {10\p@ }}
\@writefile{lot}{\addvspace {10\p@ }}
\newlabel{intro}{{1}{17}}
\@writefile{toc}{\contentsline {section}{\numberline {1.1}Κίνητρο}{17}}
\@writefile{lof}{\contentsline {figure}{\numberline {1.1}{\ignorespaces Σύγκριση της όρασης ενός ανθρώπου και ενός υπολογιστή.\relax }}{18}}
\providecommand*\caption@xref[2]{\@setref\relax\@undefined{#1}}
\newlabel{fig:cv_vs_hv}{{1.1}{18}}
\citation{1}
\citation{2}
\@writefile{toc}{\contentsline {section}{\numberline {1.2}Περιγραφή του Προβλήματος}{19}}
\citation{3}
\@writefile{toc}{\contentsline {section}{\numberline {1.3}Σκοπός της Διπλωματικής}{20}}
\@writefile{toc}{\contentsline {section}{\numberline {1.4}Διάρθρωση του Κειμένου}{21}}
\@writefile{toc}{\contentsline {chapter}{\numberline {2}Υπόβαθρο}{23}}
\@writefile{lof}{\addvspace {10\p@ }}
\@writefile{lot}{\addvspace {10\p@ }}
\newlabel{background}{{2}{23}}
\@writefile{toc}{\contentsline {section}{\numberline {2.1}Θεωρητικό Υπόβαθρο}{23}}
\@writefile{toc}{\contentsline {subsection}{\numberline {2.1.1}Φίλτρα Σωματιδίων}{23}}
\@writefile{lof}{\contentsline {figure}{\numberline {2.1}{\ignorespaces Γενικός Αλγόριθμος Φίλτρου Σωματιδίων.\relax }}{24}}
\newlabel{fig:pf_alg}{{2.1}{24}}
\@writefile{toc}{\contentsline {subsubsection}{Διαδικασία Λειτουργίας}{24}}
\@writefile{toc}{\contentsline {subsubsection}{Μέθοδοι Επαναδειγματοληψίας (Resampling)}{25}}
\@writefile{toc}{\contentsline {subsection}{\numberline {2.1.2}Βαθμονόμηση Κάμερας}{26}}
\@writefile{toc}{\contentsline {subsubsection}{Ενδογενείς Παράμετροι}{26}}
\@writefile{lof}{\contentsline {figure}{\numberline {2.2}{\ignorespaces To μοντέλο καμερών που χρησιμοποιούμε.\relax }}{27}}
\newlabel{fig:pinhole_cam_model}{{2.2}{27}}
\@writefile{toc}{\contentsline {subsubsection}{Εξωγενείς Παράμετροι}{27}}
\@writefile{lof}{\contentsline {figure}{\numberline {2.3}{\ignorespaces Eξωγενείς Παράμετροι.\relax }}{28}}
\newlabel{fig:ext_params}{{2.3}{28}}
\@writefile{toc}{\contentsline {subsection}{\numberline {2.1.3}Συνελικτικά Νευρωνικά Δίκτυα - CNNs}{28}}
\@writefile{lof}{\contentsline {figure}{\numberline {2.4}{\ignorespaces Τυπική δομή ενός συνελικτικού νευρωνικού δικτύου.\relax }}{29}}
\newlabel{fig:cnn}{{2.4}{29}}
\@writefile{toc}{\contentsline {section}{\numberline {2.2}Τεχνολογικό Υπόβαθρο}{29}}
\@writefile{toc}{\contentsline {subsection}{\numberline {2.2.1}Γλώσσα Προγραμματισμού}{29}}
\@writefile{lof}{\contentsline {figure}{\numberline {2.5}{\ignorespaces Χρήση Python2 στο Visual Studio Code.\relax }}{29}}
\newlabel{fig:python_vs_code}{{2.5}{29}}
\@writefile{toc}{\contentsline {subsection}{\numberline {2.2.2}Robot Operating System (ROS)}{30}}
\@writefile{lof}{\contentsline {figure}{\numberline {2.6}{\ignorespaces Bασική Αρχιτεκτονική Επικοινωνίας του ROS.\relax }}{31}}
\newlabel{fig:ros}{{2.6}{31}}
\@writefile{toc}{\contentsline {subsubsection}{Πακέτο tf}{31}}
\@writefile{toc}{\contentsline {subsubsection}{Πακέτο cv\_bridge}{32}}
\@writefile{lof}{\contentsline {figure}{\numberline {2.7}{\ignorespaces Πακέτο cv\_bridge.\relax }}{32}}
\newlabel{fig:ros}{{2.7}{32}}
\@writefile{toc}{\contentsline {subsection}{\numberline {2.2.3}OpenCV}{32}}
\@writefile{lof}{\contentsline {figure}{\numberline {2.8}{\ignorespaces OpenCV με Γλώσσα Προγραμματισμού Python.\relax }}{33}}
\newlabel{fig:opencv}{{2.8}{33}}
\@writefile{toc}{\contentsline {chapter}{\numberline {3}Eπισκόπηση Ερευνητικής Περιοχής}{35}}
\@writefile{lof}{\addvspace {10\p@ }}
\@writefile{lot}{\addvspace {10\p@ }}
\newlabel{sota}{{3}{35}}
\@writefile{toc}{\contentsline {section}{\numberline {3.1}Εισαγωγή}{35}}
\citation{4}
\citation{4}
\citation{4}
\citation{5}
\@writefile{toc}{\contentsline {section}{\numberline {3.2}Human Detection}{36}}
\citation{5}
\citation{5}
\citation{6}
\citation{7}
\citation{8}
\@writefile{lof}{\contentsline {figure}{\numberline {3.1}{\ignorespaces Χρήση ελλείψεων για εντοπισμό ανθρώπινων σωμάτων \cite  {4}.\relax }}{37}}
\newlabel{fig:ellipse}{{3.1}{37}}
\citation{9}
\citation{10}
\citation{10}
\citation{10}
\@writefile{lof}{\contentsline {figure}{\numberline {3.2}{\ignorespaces Χρήση ελλειπτικών κυλίνδρων για τον εντοπισμό ανθρώπων \cite  {5}.\relax }}{38}}
\newlabel{fig:elliptic_cylinders}{{3.2}{38}}
\citation{10}
\citation{11}
\citation{11}
\citation{11}
\citation{12}
\@writefile{lof}{\contentsline {figure}{\numberline {3.3}{\ignorespaces Μερικά Haar-like features \cite  {10}.\relax }}{39}}
\newlabel{fig:haar_like_features}{{3.3}{39}}
\citation{12}
\citation{12}
\citation{13}
\citation{11}
\citation{14}
\citation{15}
\citation{16}
\citation{17}
\citation{18}
\@writefile{lof}{\contentsline {figure}{\numberline {3.4}{\ignorespaces Τα παραλληλόγραμμα Ηaar-like χαρακτηριστικά \cite  {11}.\relax }}{40}}
\newlabel{fig:haar_parallel}{{3.4}{40}}
\@writefile{lof}{\contentsline {figure}{\numberline {3.5}{\ignorespaces Χρήση HOG για τον εντοπισμό ανθρώπου \cite  {12}.\relax }}{40}}
\newlabel{fig:hog}{{3.5}{40}}
\citation{19}
\citation{20}
\citation{20}
\citation{20}
\citation{1}
\citation{2}
\citation{21,22}
\citation{23,24,25}
\citation{26,27}
\citation{28,29}
\@writefile{lof}{\contentsline {figure}{\numberline {3.6}{\ignorespaces Συνδυασμένο μοντέλο CNN/CRF για ανίχνευση ανθρώπων σε εικόνες \cite  {20}.\relax }}{42}}
\newlabel{fig:cnn_crf}{{3.6}{42}}
\@writefile{toc}{\contentsline {section}{\numberline {3.3}Human Tracking}{42}}
\citation{30}
\citation{31}
\citation{32}
\citation{33,34,35}
\citation{36}
\citation{37}
\citation{38}
\citation{39}
\citation{40}
\citation{41}
\citation{42}
\citation{43}
\citation{44}
\@writefile{toc}{\contentsline {section}{\numberline {3.4}Προβλήματα}{45}}
\@writefile{toc}{\contentsline {chapter}{\numberline {4}Yλοποίηση του Συστήματος}{47}}
\@writefile{lof}{\addvspace {10\p@ }}
\@writefile{lot}{\addvspace {10\p@ }}
\@writefile{toc}{\contentsline {section}{\numberline {4.1}Ανίχνευση και Παρακολούθηση Ανθρώπινης Παρουσίας με Χρήση Μίας RGB Κάμερας}{47}}
\@writefile{lof}{\contentsline {figure}{\numberline {4.1}{\ignorespaces Εποπτικό Διάγραμμα Ανάπτυξης του Συστήματος με Μία Κάμερα.\relax }}{48}}
\newlabel{fig:single_camera}{{4.1}{48}}
\@writefile{lof}{\contentsline {figure}{\numberline {4.2}{\ignorespaces Παράδειγμα Χρήσης Φίλτρων Σωματιδίων σε Σύστημα με Μία Κάμερα, frame=5.\relax }}{52}}
\newlabel{fig:single_camera}{{4.2}{52}}
\@writefile{lof}{\contentsline {figure}{\numberline {4.3}{\ignorespaces Παράδειγμα Χρήσης Φίλτρων Σωματιδίων σε Σύστημα με Μία Κάμερα, frame=49.\relax }}{53}}
\newlabel{fig:sc_yolo}{{4.3}{53}}
\@writefile{toc}{\contentsline {section}{\numberline {4.2}Ανίχνευση και Παρακολούθηση Ανθρώπινης Παρουσίας με Χρήση Πολλαπλών RBG Καμερών}{53}}
\@writefile{lof}{\contentsline {figure}{\numberline {4.4}{\ignorespaces Διάγραμμα Απεικόνισης των Topics και των συνδέσεων μεταξύ τους στο ROS.\relax }}{55}}
\newlabel{fig:mc_3d_setup}{{4.4}{55}}
\@writefile{toc}{\contentsline {subsection}{\numberline {4.2.1}Διαδικασία Υλοποίησης Φίλτρων Σωματιδίων σε 3D Χώρο με Πολλαπλές Κάμερες}{56}}
\@writefile{toc}{\contentsline {subsubsection}{Εκτίμηση Απόστασης Σημείου στον Χώρο από Κάμερα}{58}}
\@writefile{lof}{\contentsline {figure}{\numberline {4.5}{\ignorespaces Eύρεση του Βάθους Z ως προς την Κάμερα σε μέτρα.\relax }}{58}}
\newlabel{fig:z_axis}{{4.5}{58}}
\@writefile{lof}{\contentsline {figure}{\numberline {4.6}{\ignorespaces Eύρεση του Μήκους Χ ως προς την Κάμερα σε μέτρα.\relax }}{60}}
\newlabel{fig:x_axis}{{4.6}{60}}
\@writefile{lof}{\contentsline {figure}{\numberline {4.7}{\ignorespaces Σύμβαση Συστήματος Συντεταγμένων που ακολουθεί το ROS.\relax }}{61}}
\newlabel{fig:camera_coords}{{4.7}{61}}
\@writefile{toc}{\contentsline {chapter}{\numberline {5}Πειράματα και Αποτελέσματα}{63}}
\@writefile{lof}{\addvspace {10\p@ }}
\@writefile{lot}{\addvspace {10\p@ }}
\newlabel{experiments_and_results}{{5}{63}}
\@writefile{toc}{\contentsline {section}{\numberline {5.1}Ανίχνευση και Παρακολούθηση Ανθρώπινης Παρουσίας με Χρήση Μίας RGB Κάμερας}{63}}
\@writefile{toc}{\contentsline {subsection}{\numberline {5.1.1}Εισαγωγή}{63}}
\citation{10}
\citation{12}
\citation{1}
\citation{2}
\@writefile{toc}{\contentsline {subsection}{\numberline {5.1.2}Σετ Δεδομένων CAVIAR}{64}}
\@writefile{lof}{\contentsline {figure}{\numberline {5.1}{\ignorespaces Στιγμιότυπο από το CAVIAR Dataset.\relax }}{64}}
\newlabel{fig:caviar}{{5.1}{64}}
\@writefile{toc}{\contentsline {subsection}{\numberline {5.1.3}Ανιχνευτές Ανθρώπων (Human Detectors)}{64}}
\@writefile{toc}{\contentsline {subsubsection}{Εύρεση Βέλτιστων Παραμέτρων για Ηaar Cascade και HOG}{65}}
\@writefile{toc}{\contentsline {subsubsection}{Αποτελέσματα}{66}}
\@writefile{lot}{\contentsline {table}{\numberline {5.1}{\ignorespaces Mετρικές για τον Haar με scale=1.1\relax }}{66}}
\newlabel{tab:my-table}{{5.1}{66}}
\@writefile{lot}{\contentsline {table}{\numberline {5.2}{\ignorespaces Mετρικές για τον HOG με {[}winStride=(8,8), padding=(8,8), scale=1.1{]}.\relax }}{66}}
\newlabel{tab:my-table}{{5.2}{66}}
\@writefile{lot}{\contentsline {table}{\numberline {5.3}{\ignorespaces Mετρικές για τον HOG με {[}winStride=(8,8), padding=(8,8), scale=1.1{]} και err=15\%.\relax }}{67}}
\newlabel{tab:my-table}{{5.3}{67}}
\@writefile{lot}{\contentsline {table}{\numberline {5.4}{\ignorespaces Mετρικές για τον HOG με {[}winStride=(8,8), padding=(16,16), scale=1.1{]}\relax }}{67}}
\newlabel{tab:my-table}{{5.4}{67}}
\@writefile{lot}{\contentsline {table}{\numberline {5.5}{\ignorespaces Mετρικές για τον HOG με {[}winStride=(8,8), padding=(16,16), scale=1.1{]} και err=15\%.\relax }}{67}}
\newlabel{tab:my-table}{{5.5}{67}}
\@writefile{lof}{\contentsline {figure}{\numberline {5.2}{\ignorespaces Aποστάσεις κέντρων για τον Haar με scale=1.1.\relax }}{67}}
\newlabel{fig:dists_xc_yc_haar_1_1}{{5.2}{67}}
\@writefile{lof}{\contentsline {figure}{\numberline {5.3}{\ignorespaces Aποστάσεις κέντρων για τον HOG με [winStride=(8,8), padding=(8,8), scale=1.1].\relax }}{68}}
\newlabel{fig:dists_xc_yc_hog_0}{{5.3}{68}}
\@writefile{lof}{\contentsline {figure}{\numberline {5.4}{\ignorespaces Aποστάσεις κέντρων για τον HOG με [winStride=(8,8), padding=(16,16), scale=1.1].\relax }}{68}}
\newlabel{fig:dists_xc_yc_hog_5}{{5.4}{68}}
\@writefile{toc}{\contentsline {subsubsection}{Συμπεράσματα}{69}}
\@writefile{toc}{\contentsline {subsection}{\numberline {5.1.4}Χρήση Φίλτρων Σωματιδίων για Παρακολούθηση Ανθρώπων}{69}}
\@writefile{lot}{\contentsline {table}{\numberline {5.6}{\ignorespaces Mέσο Τετραγωνικό Σφάλμα των Αποστάσεων των κέντρων των bounding boxes των detectors - trackers από τα κέντρα που δίνονται ως Ground Truth\relax }}{70}}
\@writefile{lot}{\contentsline {table}{\numberline {5.7}{\ignorespaces Mέσο Τετραγωνικό Σφάλμα των Αποστάσεων των κέντρων των Φίλτρων Σωματιδίων από τα κέντρα που δίνονται ως Ground Truth\relax }}{70}}
\@writefile{lot}{\contentsline {table}{\numberline {5.8}{\ignorespaces Τυπική Απόκλιση των Αποστάσεων των κέντρων των bounding boxes των detectors - trackers από τα κέντρα που δίνονται ως Ground Truth\relax }}{71}}
\newlabel{tab:my-table}{{5.8}{71}}
\@writefile{lot}{\contentsline {table}{\numberline {5.9}{\ignorespaces Τυπική Απόκλιση των Αποστάσεων των κέντρων των Φίλτρων Σωματιδίων από τα κέντρα που δίνονται ως Ground Truth\relax }}{71}}
\newlabel{tab:my-table}{{5.9}{71}}
\@writefile{lot}{\contentsline {table}{\numberline {5.10}{\ignorespaces Mετρικές ανιχνευτή Haar Cascade\relax }}{72}}
\@writefile{lot}{\contentsline {table}{\numberline {5.11}{\ignorespaces Mετρικές ανιχνευτή SSD.\relax }}{73}}
\newlabel{tab:my-table}{{5.11}{73}}
\@writefile{lot}{\contentsline {table}{\numberline {5.12}{\ignorespaces Mετρικές CSRT με ανιχνευτή Haar.\relax }}{73}}
\newlabel{tab:my-table}{{5.12}{73}}
\@writefile{lot}{\contentsline {table}{\numberline {5.13}{\ignorespaces Mετρικές CSRT με ανιχνευτή SSD.\relax }}{74}}
\newlabel{tab:my-table}{{5.13}{74}}
\@writefile{lot}{\contentsline {table}{\numberline {5.14}{\ignorespaces Mετρικές TLD με ανιχνευτή Haar.\relax }}{74}}
\newlabel{tab:my-table}{{5.14}{74}}
\@writefile{lot}{\contentsline {table}{\numberline {5.15}{\ignorespaces Mετρικές TLD με ανιχνευτή SSD.\relax }}{75}}
\newlabel{tab:my-table}{{5.15}{75}}
\@writefile{lot}{\contentsline {table}{\numberline {5.16}{\ignorespaces Μετρικές Particle Filter με ανιχνευτή Haar και tracker CSRT.\relax }}{75}}
\newlabel{tab:my-table}{{5.16}{75}}
\@writefile{lot}{\contentsline {table}{\numberline {5.17}{\ignorespaces Μετρικές Particle Filter με ανιχνευτή Haar και tracker TLD.\relax }}{76}}
\newlabel{tab:my-table}{{5.17}{76}}
\@writefile{lot}{\contentsline {table}{\numberline {5.18}{\ignorespaces Μετρικές Particle Filter με ανιχνευτή SSD και tracker CSRT.\relax }}{76}}
\newlabel{tab:my-table}{{5.18}{76}}
\@writefile{lot}{\contentsline {table}{\numberline {5.19}{\ignorespaces Μετρικές Particle Filter με ανιχνευτή SSD και tracker TLD.\relax }}{77}}
\newlabel{tab:my-table}{{5.19}{77}}
\@writefile{lot}{\contentsline {table}{\numberline {5.20}{\ignorespaces Σύγκριση των True Positives των Φίλτρων Σωματιδίων με τους υπόλοιπους αλγορίθμους. Τα αποτελέσματα προκύπτουν ως: pf\_tp / other\_tp\relax }}{79}}
\newlabel{tab:my-table}{{5.20}{79}}
\@writefile{lot}{\contentsline {table}{\numberline {5.21}{\ignorespaces Σύγκριση των False Positives των Φίλτρων Σωματιδίων με τους υπόλοιπους αλγορίθμους. Τα αποτελέσματα προκύπτουν ως: pf\_fp / other\_fp\relax }}{80}}
\newlabel{tab:my-table}{{5.21}{80}}
\@writefile{lot}{\contentsline {table}{\numberline {5.22}{\ignorespaces Σύγκριση των False Negatives των Φίλτρων Σωματιδίων με τους υπόλοιπους αλγορίθμους. Τα αποτελέσματα προκύπτουν ως: pf\_fn / other\_fn\relax }}{80}}
\newlabel{tab:my-table}{{5.22}{80}}
\@writefile{lof}{\contentsline {figure}{\numberline {5.5}{\ignorespaces Χρήση SSD \& CSRT στο frame 0.\relax }}{81}}
\newlabel{fig:sc_ssd_pf_frame_0}{{5.5}{81}}
\@writefile{lof}{\contentsline {figure}{\numberline {5.6}{\ignorespaces Χρήση SSD \& CSRT στο frame 3.\relax }}{81}}
\newlabel{fig:sc_ssd_pf_frame_3}{{5.6}{81}}
\@writefile{lof}{\contentsline {figure}{\numberline {5.7}{\ignorespaces Χρήση SSD \& CSRT στο frame 9.\relax }}{82}}
\newlabel{fig:sc_ssd_pf_frame_9}{{5.7}{82}}
\@writefile{lof}{\contentsline {figure}{\numberline {5.8}{\ignorespaces Χρήση SSD \& CSRT στο frame 19.\relax }}{82}}
\newlabel{fig:sc_ssd_pf_frame_19}{{5.8}{82}}
\@writefile{toc}{\contentsline {section}{\numberline {5.2}Ανίχνευση και Παρακολούθηση Ανθρώπινης Παρουσίας με Χρήση Πολλαπλών RBG Καμερών}{83}}
\@writefile{toc}{\contentsline {subsection}{\numberline {5.2.1}Εισαγωγή}{83}}
\@writefile{toc}{\contentsline {subsection}{\numberline {5.2.2}Σετ Δεδομένων VIPT\_2014}{83}}
\@writefile{lof}{\contentsline {figure}{\numberline {5.9}{\ignorespaces Λήψεις από τέσσερις διαφορετικές κάμερες για το VIPT\_2014 Dataset.\relax }}{83}}
\newlabel{fig:vipt}{{5.9}{83}}
\@writefile{lof}{\contentsline {figure}{\numberline {5.10}{\ignorespaces Κάτοψη του εργαστηρίου του VIPT\_2014 Dataset.\relax }}{84}}
\newlabel{fig:vipt_lab}{{5.10}{84}}
\@writefile{toc}{\contentsline {subsection}{\numberline {5.2.3}Ανίχνευση και Παρακολούθηση σε 3D Χώρο με Χρήση Μίας Κάμερας}{85}}
\@writefile{lof}{\contentsline {figure}{\numberline {5.11}{\ignorespaces Παρακολούθηση ανθρώπων με μία κάμερα και Φίλτρα Σωματιδίων (RViz).\relax }}{86}}
\newlabel{fig:cam0_0}{{5.11}{86}}
\@writefile{lof}{\contentsline {figure}{\numberline {5.12}{\ignorespaces Παρακολούθηση ανθρώπων με μία κάμερα και Φίλτρα Σωματιδίων (Video).\relax }}{86}}
\newlabel{fig:cam0_0_video}{{5.12}{86}}
\@writefile{lof}{\contentsline {figure}{\numberline {5.13}{\ignorespaces Παρακολούθηση ανθρώπων με μία κάμερα και Φίλτρα Σωματιδίων (RViz).\relax }}{87}}
\newlabel{fig:cam0_0}{{5.13}{87}}
\@writefile{lof}{\contentsline {figure}{\numberline {5.14}{\ignorespaces Παρακολούθηση ανθρώπων με μία κάμερα και Φίλτρα Σωματιδίων (Video).\relax }}{87}}
\newlabel{fig:cam0_0_video}{{5.14}{87}}
\@writefile{lof}{\contentsline {figure}{\numberline {5.15}{\ignorespaces Παρακολούθηση ανθρώπων με μία κάμερα και Φίλτρα Σωματιδίων (RViz).\relax }}{88}}
\newlabel{fig:cam0_0}{{5.15}{88}}
\@writefile{lof}{\contentsline {figure}{\numberline {5.16}{\ignorespaces Παρακολούθηση ανθρώπων με μία κάμερα και Φίλτρα Σωματιδίων (Video).\relax }}{88}}
\newlabel{fig:cam0_0_video}{{5.16}{88}}
\@writefile{lof}{\contentsline {figure}{\numberline {5.17}{\ignorespaces Παρακολούθηση ανθρώπων με μία κάμερα και Φίλτρα Σωματιδίων (RViz).\relax }}{89}}
\newlabel{fig:cam0_0}{{5.17}{89}}
\@writefile{lof}{\contentsline {figure}{\numberline {5.18}{\ignorespaces Παρακολούθηση ανθρώπων με μία κάμερα και Φίλτρα Σωματιδίων (Video).\relax }}{89}}
\newlabel{fig:cam0_0_video}{{5.18}{89}}
\@writefile{lof}{\contentsline {figure}{\numberline {5.19}{\ignorespaces Παρακολούθηση ανθρώπων με μία κάμερα και Φίλτρα Σωματιδίων (RViz).\relax }}{90}}
\newlabel{fig:cam0_0}{{5.19}{90}}
\@writefile{lof}{\contentsline {figure}{\numberline {5.20}{\ignorespaces Παρακολούθηση ανθρώπων με μία κάμερα και Φίλτρα Σωματιδίων (Video).\relax }}{90}}
\newlabel{fig:cam0_0_video}{{5.20}{90}}
\@writefile{lof}{\contentsline {figure}{\numberline {5.21}{\ignorespaces Παρακολούθηση ανθρώπων με μία κάμερα και Φίλτρα Σωματιδίων (RViz).\relax }}{91}}
\newlabel{fig:cam0_0}{{5.21}{91}}
\@writefile{lof}{\contentsline {figure}{\numberline {5.22}{\ignorespaces Παρακολούθηση ανθρώπων με μία κάμερα και Φίλτρα Σωματιδίων (Video).\relax }}{91}}
\newlabel{fig:cam0_0_video}{{5.22}{91}}
\@writefile{lof}{\contentsline {figure}{\numberline {5.23}{\ignorespaces Παρακολούθηση ανθρώπων με μία κάμερα και Φίλτρα Σωματιδίων (RViz).\relax }}{92}}
\newlabel{fig:cam0_0}{{5.23}{92}}
\@writefile{lof}{\contentsline {figure}{\numberline {5.24}{\ignorespaces Παρακολούθηση ανθρώπων με μία κάμερα και Φίλτρα Σωματιδίων (Video).\relax }}{92}}
\newlabel{fig:cam0_0_video}{{5.24}{92}}
\@writefile{lot}{\contentsline {table}{\numberline {5.23}{\ignorespaces Μετρικές για το σύστημα με Μία κάμερα\relax }}{93}}
\newlabel{tab:my-table}{{5.23}{93}}
\@writefile{toc}{\contentsline {subsection}{\numberline {5.2.4}Ανίχνευση και Παρακολούθηση σε 3D Χώρο με Χρήση Δύο Καμερών}{93}}
\@writefile{lof}{\contentsline {figure}{\numberline {5.25}{\ignorespaces Παρακολούθηση ανθρώπων με δύο κάμερες και Φίλτρα Σωματιδίων (RViz).\relax }}{94}}
\newlabel{fig:cam0_0}{{5.25}{94}}
\@writefile{lof}{\contentsline {figure}{\numberline {5.26}{\ignorespaces Παρακολούθηση ανθρώπων με δύο κάμερες και Φίλτρα Σωματιδίων (Video).\relax }}{94}}
\newlabel{fig:cam0_0_video}{{5.26}{94}}
\@writefile{lof}{\contentsline {figure}{\numberline {5.27}{\ignorespaces Παρακολούθηση ανθρώπων με δύο κάμερες και Φίλτρα Σωματιδίων (RViz).\relax }}{95}}
\newlabel{fig:cam0_0}{{5.27}{95}}
\@writefile{lof}{\contentsline {figure}{\numberline {5.28}{\ignorespaces Παρακολούθηση ανθρώπων με δύο κάμερες και Φίλτρα Σωματιδίων (Video).\relax }}{95}}
\newlabel{fig:cam0_0_video}{{5.28}{95}}
\@writefile{lof}{\contentsline {figure}{\numberline {5.29}{\ignorespaces Παρακολούθηση ανθρώπων με δύο κάμερες και Φίλτρα Σωματιδίων (RViz).\relax }}{96}}
\newlabel{fig:cam0_0}{{5.29}{96}}
\@writefile{lof}{\contentsline {figure}{\numberline {5.30}{\ignorespaces Παρακολούθηση ανθρώπων με δύο κάμερες και Φίλτρα Σωματιδίων (Video).\relax }}{96}}
\newlabel{fig:cam0_0_video}{{5.30}{96}}
\@writefile{lot}{\contentsline {table}{\numberline {5.24}{\ignorespaces Μετρικές για το σύστημα με δύο κάμερες\relax }}{97}}
\newlabel{tab:my-table}{{5.24}{97}}
\@writefile{toc}{\contentsline {subsection}{\numberline {5.2.5}Ανίχνευση και Παρακολούθηση σε 3D Χώρο με Χρήση Τριών Καμερών}{97}}
\@writefile{lof}{\contentsline {figure}{\numberline {5.31}{\ignorespaces Παρακολούθηση ανθρώπων με τρεις κάμερες και Φίλτρα Σωματιδίων (RViz).\relax }}{98}}
\newlabel{fig:cam0_0}{{5.31}{98}}
\@writefile{lof}{\contentsline {figure}{\numberline {5.32}{\ignorespaces Παρακολούθηση ανθρώπων με τρεις κάμερες και Φίλτρα Σωματιδίων (Video).\relax }}{98}}
\newlabel{fig:cam0_0_video}{{5.32}{98}}
\@writefile{lof}{\contentsline {figure}{\numberline {5.33}{\ignorespaces Παρακολούθηση ανθρώπων με τρεις κάμερες και Φίλτρα Σωματιδίων (RViz).\relax }}{99}}
\newlabel{fig:cam0_0}{{5.33}{99}}
\@writefile{lof}{\contentsline {figure}{\numberline {5.34}{\ignorespaces Παρακολούθηση ανθρώπων με τρεις κάμερες και Φίλτρα Σωματιδίων (Video).\relax }}{99}}
\newlabel{fig:cam0_0_video}{{5.34}{99}}
\@writefile{lof}{\contentsline {figure}{\numberline {5.35}{\ignorespaces Παρακολούθηση ανθρώπων με τρεις κάμερες και Φίλτρα Σωματιδίων (RViz).\relax }}{100}}
\newlabel{fig:cam0_0}{{5.35}{100}}
\@writefile{lof}{\contentsline {figure}{\numberline {5.36}{\ignorespaces Παρακολούθηση ανθρώπων με τρεις κάμερες και Φίλτρα Σωματιδίων (Video).\relax }}{100}}
\newlabel{fig:cam0_0_video}{{5.36}{100}}
\@writefile{lof}{\contentsline {figure}{\numberline {5.37}{\ignorespaces Παρακολούθηση ανθρώπων με τρεις κάμερες και Φίλτρα Σωματιδίων (RViz).\relax }}{101}}
\newlabel{fig:cam0_0}{{5.37}{101}}
\@writefile{lof}{\contentsline {figure}{\numberline {5.38}{\ignorespaces Παρακολούθηση ανθρώπων με τρεις κάμερες και Φίλτρα Σωματιδίων (Video).\relax }}{101}}
\newlabel{fig:cam0_0_video}{{5.38}{101}}
\@writefile{lot}{\contentsline {table}{\numberline {5.25}{\ignorespaces Μετρικές για το σύστημα με τρεις κάμερες\relax }}{102}}
\newlabel{tab:my-table}{{5.25}{102}}
\@writefile{lot}{\contentsline {table}{\numberline {5.26}{\ignorespaces Σύγκριση μετρικών για το σύστημα με μία, δύο, τρεις κάμερες\relax }}{102}}
\newlabel{tab:my-table}{{5.26}{102}}
\@writefile{toc}{\contentsline {chapter}{\numberline {6}Συμπεράσματα και Μελλοντική Εργασία}{103}}
\@writefile{lof}{\addvspace {10\p@ }}
\@writefile{lot}{\addvspace {10\p@ }}
\newlabel{experiments_and_results}{{6}{103}}
\@writefile{toc}{\contentsline {section}{\numberline {6.1}Γενικά Συμπεράσματα}{103}}
\@writefile{toc}{\contentsline {section}{\numberline {6.2}Προβλήματα}{104}}
\@writefile{toc}{\contentsline {section}{\numberline {6.3}Μελλοντικές Επεκτάσεις}{105}}
\bibcite{1}{1}
\bibcite{2}{2}
\bibcite{3}{3}
\bibcite{4}{4}
\bibcite{5}{5}
\bibcite{6}{6}
\bibcite{7}{7}
\bibcite{8}{8}
\bibcite{9}{9}
\bibcite{10}{10}
\bibcite{11}{11}
\bibcite{12}{12}
\bibcite{13}{13}
\bibcite{14}{14}
\bibcite{15}{15}
\bibcite{16}{16}
\bibcite{17}{17}
\bibcite{18}{18}
\bibcite{19}{19}
\bibcite{20}{20}
\bibcite{21}{21}
\bibcite{22}{22}
\bibcite{23}{23}
\bibcite{24}{24}
\bibcite{25}{25}
\bibcite{26}{26}
\bibcite{27}{27}
\bibcite{28}{28}
\bibcite{29}{29}
\bibcite{30}{30}
\bibcite{31}{31}
\bibcite{32}{32}
\bibcite{33}{33}
\bibcite{34}{34}
\bibcite{35}{35}
\bibcite{36}{36}
\bibcite{37}{37}
\bibcite{38}{38}
\bibcite{39}{39}
\bibcite{40}{40}
\bibcite{41}{41}
\bibcite{42}{42}
\bibcite{43}{43}
\bibcite{44}{44}
