Empty_Frames,Accuracy,Precision,Recall,F_Measure,Mean_dist,True_Positives
0,0.15545755237045203,0.3785234899328859,0.20873427091043673,0.26908396946564883,5.481873428167953,282
67,0.0,0.0,0.0,nan,0,0
7,0.3648960739030023,0.7577937649880095,0.4130718954248366,0.5346869712351945,4.294765755123108,316
0,0.0030698388334612432,0.11764705882352941,0.003142183817753339,0.00612088752869166,9.30805465659526,4
0,0.07351351351351351,0.22628951747088186,0.09819494584837545,0.13695871097683784,4.996064609234461,136
0,0.0,0.0,0.0,nan,0,0
0,0.042598258413744414,0.6856060606060606,0.04344695151224196,0.08171557562076749,4.543222592128711,181
829,0.0,0.0,0.0,nan,0,0
104,0.3932038834951456,0.9642857142857143,0.39901477832512317,0.5644599303135889,4.37944519204616,162
0,0.0,0.0,0.0,nan,0,0
0,0.13002191380569758,0.37160751565762007,0.16666666666666666,0.2301228183581125,5.6961857036335335,356
0,0.0,0.0,0.0,nan,0,0
57,0.16147589763935727,0.5885755603759942,0.18202146690518783,0.27805294619982923,6.746991737094184,814
478,0.0013623978201634877,0.07317073170731707,0.0013863216266173752,0.0027210884353741495,3.6138730843212596,3
0,0.14328185647039393,0.27430830039525694,0.23074876978321585,0.250650101126842,7.9056762575511765,1735
244,0.0009624639076034649,0.017341040462427744,0.0010179843909060061,0.0019230769230769232,9.350146501183175,3
0,0.25060658578856154,0.5830645161290322,0.30532094594594594,0.4007760532150776,5.390019050519808,723
295,0.0010905125408942203,0.05714285714285714,0.001110494169905608,0.002178649237472767,31.5,2
0,0.24815983175604628,0.6504961411245865,0.28633826741082263,0.3976411120471778,4.940411284117824,1180
1039,0.009211283822682787,0.45714285714285713,0.009313154831199068,0.01825442099258414,4.361362171576761,16
0,0.08666733346669334,0.21313491575451973,0.1274452125312546,0.15951033181462562,10.431284789887666,1733
0,0.001771479185119575,0.055944055944055944,0.0018260671079662178,0.0035366931918656055,4.692582071856612,8
0,0.04211087420042644,0.2885317750182615,0.046990245063050204,0.08081841432225063,3.511850770463012,395
577,0.014457831325301205,0.5454545454545454,0.014634146341463415,0.028503562945368172,6.457604325274262,24
288,0.14801297648012976,0.8352402745995423,0.15246449456975772,0.257859413634758,4.210473910614991,365
993,0.0,0.0,0.0,nan,0,0
0,0.13601741022850924,0.3633720930232558,0.17857142857142858,0.23946360153256704,5.251557258166435,500
199,0.0,0.0,0.0,nan,0,0
4,0.23440684875662454,0.4346182917611489,0.33724340175953077,0.3797886393659181,4.061236080489368,575
333,0.0,0.0,0.0,nan,0,0
24,0.27405421507298183,0.6870799103808812,0.3131381892443839,0.4302080897825578,4.7734998524682215,920
588,0.0,0.0,0.0,nan,0,0
837,0.2915980230642504,0.5756097560975609,0.37145855194123817,0.45153061224489793,5.4783622412264,708
77,0.0005186721991701245,0.02197802197802198,0.0005309264666843643,0.0010368066355624676,11.7169905660283,2
207,0.1500828637719589,0.41748109902268116,0.189837330202918,0.2609948700213269,7.257467291450118,2264
348,0.0025618035096708082,0.10582010582010581,0.002618486514794449,0.005110514884374601,6.625173471328313,20
0,0.116917841516772,0.3477946493130875,0.14975093399750933,0.20935799782372144,6.402016816185046,1443
824,0.006253908692933083,0.09523809523809523,0.006648936170212766,0.012430080795525171,7.2947347540466225,10
0,0.09487986489598527,0.2537987679671458,0.13158735228361546,0.17331557175909698,8.327794204215776,1236
1014,0.0,0.0,0.0,nan,0,0
0,0.12325157105209811,0.30324189526184536,0.17194570135746606,0.21945497202670997,5.404138757765644,1216
155,0.0021406727828746177,0.125,0.002173238124805961,0.0042722001830942935,6.983705980668198,7
0,0.12445008460236887,0.2732676945940925,0.18601416287303996,0.22135279512452033,7.452356775900354,1471
96,0.002963841138114997,0.04918032786885246,0.0031439949696080486,0.00591016548463357,10.981332428346144,15
0,0.05243123772102161,0.23828125,0.06298864139253577,0.09963831524909576,12.952951549216941,427
184,0.0003475842891901286,0.006578947368421052,0.00036683785766691124,0.0006949270326615705,3.1622776601683795,1
0,0.10179324894514769,0.3704414587332054,0.12308673469387756,0.18477740545715654,9.991454898073888,579
666,0.000925925925925926,0.14285714285714285,0.000931098696461825,0.0018501387604070304,12.041594578792296,1
156,0.2986870897155361,0.7127937336814621,0.33955223880597013,0.45998315080033697,6.650024761513857,273
162,0.006265664160401002,0.2631578947368421,0.006377551020408163,0.012453300124533002,11.538404044193474,5
0,0.08389336090392142,0.336094674556213,0.10055767017792334,0.15480002725352593,5.630949965803013,1136
24,0.16427857380873043,0.17842924357582338,0.6744186046511628,0.28219805380652546,4.788745087459355,493
