Empty_Frames,Accuracy,Precision,Recall,F_Measure,Mean_dist,True_Positives
0,0.12646514497223935,0.4427645788336933,0.1504035216434336,0.22453450164293537,6.827533056002529,205
67,0.0,0.0,0.0,nan,0,0
7,0.20481927710843373,0.7981220657276995,0.21601016518424396,0.34,3.8202747067608884,170
0,0.003108003108003108,0.4,0.00312256049960968,0.006196746707978311,9.30805465659526,4
0,0.06198830409356725,0.24882629107981222,0.07625899280575539,0.11674008810572686,5.722424794332907,106
0,0.0,0.0,0.0,nan,0,0
0,0.024102079395085067,0.6219512195121951,0.02446043165467626,0.04706968158744808,2.8220539110610283,102
829,0.0,nan,0.0,nan,0,0
104,0.25365853658536586,0.9811320754716981,0.2549019607843137,0.40466926070038906,4.644087744643436,104
0,0.026607538802660754,0.8571428571428571,0.026726057906458798,0.05183585313174947,6.86582657991006,12
0,0.10657193605683836,0.2976190476190476,0.14238253440911247,0.1926163723916533,4.763048579443678,300
0,0.00245398773006135,0.09523809523809523,0.002512562814070352,0.004895960832313342,8.06225774829855,2
57,0.04721030042918455,0.5714285714285714,0.048943270300333706,0.0901639344262295,8.320339677992983,220
478,0.0009178522257916476,0.4,0.0009191176470588235,0.0018340210912425492,3.0,2
0,0.08178927749150312,0.3205844434894714,0.09893899204244032,0.15121110773284688,8.4893984623944,746
244,0.002302631578947368,0.11666666666666667,0.002343488449949782,0.004594683295044305,10.469642843415743,7
0,0.18767806267806267,0.5518324607329843,0.22142857142857142,0.31604197901049474,4.984323005134377,527
295,0.0010946907498631637,0.09523809523809523,0.0011061946902654867,0.002186987424822307,31.5,2
0,0.19539982803095443,0.6488222698072805,0.21850961538461539,0.32691961877360187,4.666115986924909,909
1039,0.011514104778353483,0.9523809523809523,0.01152073732718894,0.022766078542970976,6.6694198625357926,20
0,0.046510179938982626,0.23842962017235877,0.054625228519195615,0.08888624464540694,10.291468891596217,747
0,0.001128158844765343,0.13157894736842105,0.0011366219595362582,0.00225377507324769,5.994386866174068,5
0,0.020168641750227895,0.32656826568265684,0.021043871121150873,0.039539819055065345,3.7490768096644866,177
577,0.01144578313253012,0.7037037037037037,0.011501210653753027,0.02263251935675998,7.44121797921679,19
288,0.06103476151980598,0.6317991631799164,0.06328583403185248,0.11504761904761905,4.358148172152358,151
993,0.0,0.0,0.0,nan,0,0
0,0.08273164861612516,0.34634760705289674,0.09803921568627451,0.15282022784106697,5.111903088391356,275
199,0.0,0.0,0.0,nan,0,0
4,0.18249380677126342,0.36378600823045265,0.26804123711340205,0.30865921787709494,4.5265115093536075,442
333,0.0,0.0,0.0,nan,0,0
24,0.19053472649047326,0.6790799561883899,0.2093887200270179,0.32008260196179655,4.410325476114081,620
588,0.0,0.0,0.0,nan,0,0
837,0.14527956003666362,0.5541958041958042,0.16450441100155683,0.2537014805922369,5.741193097623501,317
77,0.0002620545073375262,0.037037037037037035,0.0002638522427440633,0.0005239717055279014,9.433981132056603,1
207,0.09567406729228656,0.5158371040723982,0.10511316010058676,0.17463964904950907,8.672334430211706,1254
348,0.0024652912936291684,0.36538461538461536,0.0024758926244461818,0.004918457157649495,8.533278059813977,19
0,0.0772098945070935,0.37986577181208053,0.08834547346514048,0.14335162515829464,5.466760332776471,849
824,0.007124352331606218,0.5238095238095238,0.007170795306388526,0.014147909967845658,7.347878426086965,11
0,0.07125053717232488,0.27269736842105263,0.08796689303904924,0.13302310654685495,9.079638133259541,829
1014,0.0,nan,0.0,nan,0,0
0,0.08999543170397442,0.3272425249169435,0.11042600896860987,0.16512992455993294,5.155674974715152,788
155,0.0027649769585253456,0.2903225806451613,0.0027837921435199505,0.0055147058823529415,8.069807325807046,9
0,0.082575979673605,0.26572327044025157,0.10698911116738415,0.15255461274598303,6.809067133998217,845
96,0.002436548223350254,0.0975609756097561,0.0024927295388450354,0.0048612517723313755,12.814759235984695,12
0,0.03564827039873251,0.2647058823529412,0.039566236811254395,0.06884242733299338,10.852038108465328,270
184,0.0,0.0,0.0,nan,0,0
0,0.06167826759474091,0.40379746835443037,0.06785790257392044,0.11619012930249498,12.437309117914115,319
666,0.000925925925925926,0.25,0.0009285051067780873,0.0018501387604070304,12.041594578792296,1
156,0.12150668286755771,0.8264462809917356,0.12468827930174564,0.21668472372697728,6.1001209263451015,100
162,0.006313131313131313,0.7142857142857143,0.006329113924050633,0.012547051442910916,12.76745447924175,5
0,0.05007923930269414,0.32426885582349924,0.05591435901972928,0.09538182915786296,7.546490479317809,632
1556,0.28826291079812205,0.9029411764705882,0.29748062015503873,0.44752186588921283,5.238185654015875,307
