Empty_Frames,Accuracy,Precision,Recall,F_Measure,Mean_dist,True_Positives
0,0.13863773357444242,0.44145873320537427,0.16812865497076024,0.2435150873478031,6.742571459548243,230
67,0.0,0.0,0.0,nan,0,0
7,0.25990675990675993,0.7384105960264901,0.2862644415917843,0.41258094357076774,4.561564542281201,223
0,0.003108003108003108,0.4,0.00312256049960968,0.006196746707978311,9.30805465659526,4
0,0.06666666666666667,0.2676056338028169,0.0815450643776824,0.125,5.465397013251325,114
0,0.0,0.0,0.0,nan,0,0
0,0.024994105163876443,0.5921787709497207,0.02543186180422265,0.048769266160570514,2.945737799560383,106
829,0.0,nan,0.0,nan,0,0
104,0.23786407766990292,0.9607843137254902,0.24019607843137256,0.3843137254901961,4.658801587938236,98
0,0.026607538802660754,0.8571428571428571,0.026726057906458798,0.05183585313174947,6.86582657991006,12
0,0.10520684736091299,0.29207920792079206,0.14121589277166108,0.1903839948370442,5.460852342268628,295
0,0.00245398773006135,0.09523809523809523,0.002512562814070352,0.004895960832313342,8.06225774829855,2
57,0.06291528239202658,0.44756277695716395,0.06821251688428635,0.11838249658136356,7.024563815744014,303
478,0.0009178522257916476,0.4,0.0009191176470588235,0.0018340210912425492,3.0,2
0,0.09258123850398528,0.28544423440453687,0.12051077414205906,0.16947250280583614,7.784865483781109,906
244,0.002302631578947368,0.11666666666666667,0.002343488449949782,0.004594683295044305,10.469642843415743,7
0,0.19273743016759776,0.5312800769971127,0.23222549432057216,0.3231850117096019,5.483608555764269,552
295,0.0010946907498631637,0.09523809523809523,0.0011061946902654867,0.002186987424822307,31.5,2
0,0.21400125759798785,0.6279212792127922,0.24507921267402785,0.3525552486187845,4.870008467803497,1021
1039,0.011514104778353483,0.9523809523809523,0.01152073732718894,0.022766078542970976,6.6694198625357926,20
0,0.05370359405530227,0.2178717271198655,0.06652974400352087,0.10193301865587771,9.892637109412249,907
0,0.001128158844765343,0.13157894736842105,0.0011366219595362582,0.00225377507324769,5.994386866174068,5
0,0.022734946539110863,0.2885714285714286,0.024084893287230236,0.04445911742049081,4.03573370499983,202
577,0.01144578313253012,0.7037037037037037,0.011501210653753027,0.02263251935675998,7.44121797921679,19
288,0.07125603864734299,0.6579925650557621,0.07399665551839466,0.13303269447576102,4.138150115126363,177
993,0.0,0.0,0.0,nan,0,0
0,0.10075992119335772,0.31765749778172137,0.1285919540229885,0.18307338276655585,4.562680158092329,358
199,0.0,0.0,0.0,nan,0,0
4,0.22492894843686562,0.4203338391502276,0.3260741612713361,0.36725223732184287,4.661162285433727,554
333,0.0,0.0,0.0,nan,0,0
24,0.20428134556574923,0.6781725888324873,0.22621063325431764,0.33925850685627224,4.417846996859816,668
588,0.0,0.0,0.0,nan,0,0
837,0.16708967851099832,0.45039908779931587,0.20988310308182784,0.286335628851033,5.970030239570732,395
77,0.0002620545073375262,0.037037037037037035,0.0002638522427440633,0.0005239717055279014,9.433981132056603,1
207,0.10846833578792342,0.47136,0.12349094567404427,0.195708496645187,8.252928351169555,1473
348,0.002464332036316472,0.3392857142857143,0.002476215300404014,0.004916548065726485,8.533278059813977,19
0,0.08619623774618033,0.36014760147601477,0.10178329335697153,0.15871209041385478,5.515577047171027,976
824,0.007124352331606218,0.5238095238095238,0.007170795306388526,0.014147909967845658,7.347878426086965,11
0,0.07514358647096363,0.22622478386167147,0.10113807171999141,0.13978335064549635,8.910773631019193,942
1014,0.0,nan,0.0,nan,0,0
0,0.09640892914914267,0.29120521172638436,0.1259687191771171,0.1758630864561818,5.029826566859514,894
155,0.0027649769585253456,0.2903225806451613,0.0027837921435199505,0.0055147058823529415,8.069807325807046,9
0,0.08804192472606003,0.25940482874789444,0.11760213822069492,0.16183553726245728,6.806851279257698,924
96,0.002436548223350254,0.0975609756097561,0.0024927295388450354,0.0048612517723313755,12.814759235984695,12
0,0.038532594352071785,0.2832201745877789,0.042696300628746894,0.07420584498094028,11.240467274945544,292
184,0.0,0.0,0.0,nan,0,0
0,0.06370398626740416,0.3711111111111111,0.07141329912336968,0.11977765823919669,12.73224265317803,334
666,0.000925925925925926,0.25,0.0009285051067780873,0.0018501387604070304,12.041594578792296,1
156,0.13934426229508196,0.6761363636363636,0.1493099121706399,0.24460431654676257,6.210600954382651,119
162,0.006313131313131313,0.7142857142857143,0.006329113924050633,0.012547051442910916,12.76745447924175,5
0,0.05737189563030493,0.3396928804094928,0.06457319770013269,0.10851791288836034,7.222458882757583,730
1546,0.22401433691756273,0.5924170616113744,0.2648305084745763,0.3660322108345534,5.918384625307361,250
